tb_memsys_v2.vcd
$date
	Sun Mar 22 00:28:17 2026
$end
$version
	Icarus Verilog
$end
$timescale
	1ps
$end
$scope module tb_memsys_v2 $end
$var wire 1 ! trace_ready $end
$var wire 512 " mem_req_wdata [511:0] $end
$var wire 1 # mem_req_valid $end
$var wire 1 $ mem_req_is_write $end
$var wire 30 % mem_req_addr [29:0] $end
$var parameter 32 & BLOCK_SIZE $end
$var parameter 32 ' DATA_WIDTH $end
$var parameter 32 ( EXPECTED_WORD_SIZE $end
$var parameter 2 ) L1_MS_IDLE $end
$var parameter 2 * L2_MS_IDLE $end
$var parameter 32 + LINE_DATA_WIDTH $end
$var parameter 32 , LINE_TABLE_SIZE $end
$var parameter 2 - LQ_EMPTY $end
$var parameter 2 . LQ_WAITING_ADDR $end
$var parameter 2 / LQ_WAITING_ISSUE $end
$var parameter 32 0 MAX_MISMATCH_PRINTS $end
$var parameter 32 1 OFFSET_BITS $end
$var parameter 3 2 OP_MEM_LOAD $end
$var parameter 3 3 OP_MEM_RESOLVE $end
$var parameter 3 4 OP_MEM_STORE $end
$var parameter 3 5 OP_TLB_FILL $end
$var parameter 32 6 PA_WIDTH $end
$var parameter 32 7 PROGRESS_INTERVAL $end
$var parameter 32 8 READ_LATENCY $end
$var parameter 32 9 READ_PENDING_DEPTH $end
$var parameter 32 : SHADOW_Q_SIZE $end
$var parameter 3 ; SQ_EMPTY $end
$var parameter 3 < SQ_UNRESOLVED $end
$var parameter 3 = SQ_WAITING_ADDR $end
$var parameter 3 > SQ_WAITING_DATA $end
$var parameter 3 ? SQ_WAITING_ISSUE $end
$var parameter 32 @ TLB_TABLE_SIZE $end
$var parameter 32 A TRACE_WIDTH $end
$var parameter 32 B VA_WIDTH $end
$var parameter 32 C WORD_OFFSET_BITS $end
$var reg 1 D clk $end
$var reg 1 E mem_req_ready $end
$var reg 30 F mem_resp_paddr [29:0] $end
$var reg 512 G mem_resp_rdata [511:0] $end
$var reg 1 H mem_resp_valid $end
$var reg 1 I reached_eof $end
$var reg 1 J rst_n $end
$var reg 1 K stopped_by_limit $end
$var reg 121 L trace_data [120:0] $end
$var reg 1 M trace_valid $end
$var integer 32 N checker_error_cnt [31:0] $end
$var integer 32 O cycle_ctr [31:0] $end
$var integer 32 P fail_cnt [31:0] $end
$var integer 32 Q mem_ops_seen [31:0] $end
$var integer 32 R mismatch_prints [31:0] $end
$var integer 32 S pass_cnt [31:0] $end
$var integer 32 T plusarg_status [31:0] $end
$var integer 32 U records_seen [31:0] $end
$var integer 32 V records_sent [31:0] $end
$var integer 32 W shadow_access_num [31:0] $end
$var integer 32 X shadow_head [31:0] $end
$var integer 32 Y shadow_tail [31:0] $end
$var integer 32 Z timeout_cycles [31:0] $end
$var integer 32 [ trace_fd [31:0] $end
$var integer 32 \ trace_limit [31:0] $end
$var integer 32 ] trace_wait_debug_count [31:0] $end
$scope function hash_index $end
$upscope $end
$scope module dut $end
$var wire 121 ^ active_trace [120:0] $end
$var wire 29 _ avm_address [28:0] $end
$var wire 8 ` avm_burstcount [7:0] $end
$var wire 8 a avm_byteenable [7:0] $end
$var wire 1 b avm_read $end
$var wire 64 c avm_readdata [63:0] $end
$var wire 1 d avm_readdatavalid $end
$var wire 1 e avm_waitrequest $end
$var wire 1 f avm_write $end
$var wire 64 g avm_writedata [63:0] $end
$var wire 1 D clk $end
$var wire 1 h is_mem_op $end
$var wire 1 i is_tlb_fill_now $end
$var wire 1 j l1_start_from_lsq $end
$var wire 1 k launch_issue_now $end
$var wire 1 l lsq_issue_slot_ready $end
$var wire 1 m lsq_trace_valid $end
$var wire 30 n mem_req_addr [29:0] $end
$var wire 1 $ mem_req_is_write $end
$var wire 1 E mem_req_ready $end
$var wire 1 # mem_req_valid $end
$var wire 512 o mem_req_wdata [511:0] $end
$var wire 30 p mem_resp_paddr [29:0] $end
$var wire 512 q mem_resp_rdata [511:0] $end
$var wire 1 H mem_resp_valid $end
$var wire 1 J rst_n $end
$var wire 1 r tlb_start $end
$var wire 2 s trace_addr [1:0] $end
$var wire 121 t trace_data [120:0] $end
$var wire 32 u trace_data_chunk [31:0] $end
$var wire 1 v trace_fire $end
$var wire 1 M trace_valid $end
$var wire 1 w trace_write $end
$var wire 1 x trace_value_valid $end
$var wire 64 y trace_value [63:0] $end
$var wire 1 z trace_vaddr_valid $end
$var wire 48 { trace_vaddr [47:0] $end
$var wire 30 | trace_tlb_paddr [29:0] $end
$var wire 1 ! trace_ready $end
$var wire 3 } trace_op [2:0] $end
$var wire 4 ~ trace_id [3:0] $end
$var wire 1 !" tlb_valid $end
$var wire 48 "" tlb_vaddr_mux [47:0] $end
$var wire 30 #" tlb_result_paddr [29:0] $end
$var wire 1 $" tlb_ready $end
$var wire 64 %" lsq_wdata_to_l1 [63:0] $end
$var wire 1 &" lsq_valid_to_l1 $end
$var wire 48 '" lsq_vaddr_to_l1 [47:0] $end
$var wire 1 (" lsq_sq_ready $end
$var wire 1 )" lsq_lq_ready $end
$var wire 3 *" lsq_issue_op [2:0] $end
$var wire 1 +" l2_mem_resp_valid $end
$var wire 512 ," l2_mem_resp_rdata [511:0] $end
$var wire 30 -" l2_mem_resp_paddr [29:0] $end
$var wire 512 ." l2_mem_req_wdata [511:0] $end
$var wire 1 /" l2_mem_req_valid $end
$var wire 1 0" l2_mem_req_ready $end
$var wire 1 1" l2_mem_req_is_write $end
$var wire 30 2" l2_mem_req_addr [29:0] $end
$var wire 1 3" l2_l1_wb_ack $end
$var wire 1 4" l2_l1_data_valid $end
$var wire 30 5" l2_l1_data_paddr [29:0] $end
$var wire 512 6" l2_l1_data [511:0] $end
$var wire 1 7" l1_l2_wb_valid $end
$var wire 30 8" l1_l2_wb_paddr [29:0] $end
$var wire 512 9" l1_l2_wb_data [511:0] $end
$var wire 1 :" l1_l2_req_valid $end
$var wire 30 ;" l1_l2_req_paddr [29:0] $end
$var wire 1 <" l1_busy_to_lsq $end
$var wire 1 =" issue_buf_is_write $end
$var wire 1 >" issue_buf_empty $end
$var wire 1 ?" is_tlb_fill $end
$var wire 1 @" is_store $end
$var wire 1 A" is_resolve $end
$var wire 1 B" is_load $end
$var parameter 32 C" BLOCK_SIZE $end
$var parameter 32 D" DATA_WIDTH $end
$var parameter 32 E" L1_CAPACITY $end
$var parameter 32 F" L1_MSHRS $end
$var parameter 32 G" L1_WAYS $end
$var parameter 32 H" L2_CAPACITY $end
$var parameter 32 I" L2_MSHRS $end
$var parameter 32 J" L2_WAYS $end
$var parameter 32 K" LSQ_ENTRIES $end
$var parameter 3 L" OP_MEM_LOAD $end
$var parameter 3 M" OP_MEM_RESOLVE $end
$var parameter 3 N" OP_MEM_STORE $end
$var parameter 3 O" OP_TLB_FILL $end
$var parameter 32 P" PA_WIDTH $end
$var parameter 32 Q" TLB_ENTRIES $end
$var parameter 32 R" TRACE_WIDTH $end
$var parameter 1 S" USE_AVALON_MEM $end
$var parameter 32 T" VA_WIDTH $end
$var reg 3 U" issue_buf_op [2:0] $end
$var reg 48 V" issue_buf_vaddr [47:0] $end
$var reg 1 W" issue_buf_valid $end
$var reg 64 X" issue_buf_wdata [63:0] $end
$var reg 121 Y" trace_line [120:0] $end
$scope begin gen_simple_mem $end
$upscope $end
$scope module u_l1 $end
$var wire 1 D clk $end
$var wire 1 =" is_write $end
$var wire 1 <" l1_stall_out_to_lsq $end
$var wire 512 Z" l2_wb_data [511:0] $end
$var wire 30 [" l2_wb_paddr [29:0] $end
$var wire 1 J rst_n $end
$var wire 1 j start_index $end
$var wire 48 \" trace_vaddr [47:0] $end
$var wire 64 ]" wdata [63:0] $end
$var wire 1 ^" wb_full $end
$var wire 1 _" wb_empty $end
$var wire 30 `" tlb_paddr [29:0] $end
$var wire 1 !" start_tag $end
$var wire 1 7" l2_wb_valid $end
$var wire 1 3" l2_wb_ack $end
$var wire 1 4" l2_data_valid $end
$var wire 30 a" l2_data_paddr [29:0] $end
$var wire 512 b" l2_data [511:0] $end
$var wire 22 c" incoming_tag [21:0] $end
$var wire 30 d" incoming_line_paddr [29:0] $end
$var parameter 32 e" BLOCK_SIZE $end
$var parameter 32 f" DATA_WIDTH $end
$var parameter 32 g" INDEX_BITS $end
$var parameter 32 h" L1_CAPACITY $end
$var parameter 32 i" L1_SETS $end
$var parameter 32 j" L1_WAYS $end
$var parameter 2 k" MS_IDLE $end
$var parameter 2 l" MS_RESOLVED $end
$var parameter 2 m" MS_UNRESOLVED $end
$var parameter 32 n" NUM_MSHRS $end
$var parameter 32 o" OFFSET_BITS $end
$var parameter 32 p" PA_WIDTH $end
$var parameter 32 q" TAG_SIZE $end
$var parameter 32 r" VA_WIDTH $end
$var parameter 32 s" WB_DEPTH $end
$var parameter 32 t" WB_PTR_W $end
$var parameter 32 u" WORDS_PER_BLOCK $end
$var parameter 32 v" WORD_BITS $end
$var reg 2 w" curr_index [1:0] $end
$var reg 1 x" curr_is_write $end
$var reg 64 y" curr_wdata [63:0] $end
$var reg 3 z" curr_word_offset [2:0] $end
$var reg 1 {" evict_way_l $end
$var reg 1 |" hit $end
$var reg 1 }" hit_way $end
$var reg 512 ~" install_block [511:0] $end
$var reg 30 !# l2_req_paddr [29:0] $end
$var reg 1 :" l2_req_valid $end
$var reg 4 "# lru [3:0] $end
$var reg 1 ## mshr_dup $end
$var reg 1 $# mshr_dup_idx $end
$var reg 1 %# mshr_free_idx $end
$var reg 1 &# mshr_full $end
$var reg 1 '# mshr_install_done $end
$var reg 3 (# state [2:0] $end
$var reg 512 )# victim_data [511:0] $end
$var reg 1 *# victim_dirty $end
$var reg 30 +# victim_paddr [29:0] $end
$var reg 2 ,# wb_count [1:0] $end
$var reg 1 -# wb_head $end
$var reg 1 .# wb_pop $end
$var reg 1 /# wb_push $end
$var reg 512 0# wb_push_data [511:0] $end
$var reg 30 1# wb_push_paddr [29:0] $end
$var reg 1 2# wb_tail $end
$scope begin $ivl_for_loop0 $end
$var integer 32 3# i [31:0] $end
$upscope $end
$scope begin $ivl_for_loop1 $end
$var integer 32 4# i [31:0] $end
$upscope $end
$scope begin $ivl_for_loop2 $end
$var integer 32 5# w [31:0] $end
$upscope $end
$scope begin $ivl_for_loop3 $end
$var integer 32 6# i [31:0] $end
$upscope $end
$scope begin $ivl_for_loop4 $end
$var integer 32 7# i [31:0] $end
$upscope $end
$scope begin $ivl_for_loop5 $end
$var integer 32 8# i [31:0] $end
$upscope $end
$scope begin $ivl_for_loop6 $end
$var integer 32 9# i [31:0] $end
$scope begin $ivl_for_loop7 $end
$var integer 32 :# w [31:0] $end
$upscope $end
$upscope $end
$scope begin $ivl_for_loop8 $end
$var integer 32 ;# i [31:0] $end
$upscope $end
$scope begin $ivl_for_loop9 $end
$var integer 32 <# i [31:0] $end
$upscope $end
$upscope $end
$scope module u_l2 $end
$var wire 1 D clk $end
$var wire 30 =# l1_req_paddr [29:0] $end
$var wire 1 :" l1_req_valid $end
$var wire 512 ># l1_wb_data [511:0] $end
$var wire 30 ?# l1_wb_paddr [29:0] $end
$var wire 1 7" l1_wb_valid $end
$var wire 1 0" mem_req_ready $end
$var wire 30 @# mem_resp_paddr [29:0] $end
$var wire 512 A# mem_resp_rdata [511:0] $end
$var wire 1 +" mem_resp_valid $end
$var wire 1 J rst_n $end
$var wire 20 B# wb_tag_in [19:0] $end
$var wire 4 C# wb_index_in [3:0] $end
$var wire 1 D# wb_full $end
$var wire 1 E# wb_empty $end
$var wire 20 F# req_tag [19:0] $end
$var wire 4 G# req_index [3:0] $end
$var parameter 32 H# BLOCK_SIZE $end
$var parameter 2 I# DATA_RD_FILL_EVICT $end
$var parameter 2 J# DATA_RD_NONE $end
$var parameter 2 K# DATA_RD_REQ_HIT $end
$var parameter 2 L# DATA_RD_WB_EVICT $end
$var parameter 32 M# DATA_WIDTH $end
$var parameter 32 N# INDEX_BITS $end
$var parameter 32 O# L2_CAPACITY $end
$var parameter 32 P# L2_SETS $end
$var parameter 32 Q# L2_WAYS $end
$var parameter 32 R# LINE_W $end
$var parameter 2 S# MS_IDLE $end
$var parameter 2 T# MS_RESOLVED $end
$var parameter 2 U# MS_UNRESOLVED $end
$var parameter 2 V# MS_WAIT_MEM $end
$var parameter 32 W# NUM_MSHRS $end
$var parameter 32 X# OFFSET_BITS $end
$var parameter 32 Y# PA_WIDTH $end
$var parameter 32 Z# TAG_SIZE $end
$var parameter 32 [# WAY_BITS $end
$var parameter 32 \# WB_DEPTH $end
$var parameter 32 ]# WB_PTR_W $end
$var reg 4 ^# data_rd_index [3:0] $end
$var reg 2 _# data_rd_kind [1:0] $end
$var reg 512 `# data_rd_new_line [511:0] $end
$var reg 20 a# data_rd_new_tag [19:0] $end
$var reg 30 b# data_rd_paddr [29:0] $end
$var reg 1 c# data_rd_pending $end
$var reg 2 d# data_rd_way [1:0] $end
$var reg 30 e# data_rd_wb_paddr [29:0] $end
$var reg 512 f# install_pending_block [511:0] $end
$var reg 30 g# install_pending_paddr [29:0] $end
$var reg 1 h# install_pending_valid $end
$var reg 512 i# l1_data [511:0] $end
$var reg 30 j# l1_data_paddr [29:0] $end
$var reg 1 4" l1_data_valid $end
$var reg 1 3" l1_wb_ack $end
$var reg 30 k# mem_req_addr [29:0] $end
$var reg 1 1" mem_req_is_write $end
$var reg 1 /" mem_req_valid $end
$var reg 512 l# mem_req_wdata [511:0] $end
$var reg 4 m# ram_rd_addr [3:0] $end
$var reg 30 n# req_pending_paddr [29:0] $end
$var reg 1 o# req_pending_valid $end
$var reg 1 p# victim_dirty $end
$var reg 2 q# victim_way [1:0] $end
$var reg 3 r# wb_count [2:0] $end
$var reg 2 s# wb_head [1:0] $end
$var reg 2 t# wb_tail [1:0] $end
$scope function plru_update $end
$upscope $end
$scope function plru_victim $end
$upscope $end
$scope begin gen_set_contents[0] $end
$var parameter 2 u# set_gen $end
$upscope $end
$scope begin gen_set_contents[1] $end
$var parameter 2 v# set_gen $end
$upscope $end
$scope begin gen_set_contents[2] $end
$var parameter 3 w# set_gen $end
$upscope $end
$scope begin gen_set_contents[3] $end
$var parameter 3 x# set_gen $end
$upscope $end
$scope begin gen_set_contents[4] $end
$var parameter 4 y# set_gen $end
$upscope $end
$scope begin gen_set_contents[5] $end
$var parameter 4 z# set_gen $end
$upscope $end
$scope begin gen_set_contents[6] $end
$var parameter 4 {# set_gen $end
$upscope $end
$scope begin gen_set_contents[7] $end
$var parameter 4 |# set_gen $end
$upscope $end
$scope begin gen_set_contents[8] $end
$var parameter 5 }# set_gen $end
$upscope $end
$scope begin gen_set_contents[9] $end
$var parameter 5 ~# set_gen $end
$upscope $end
$scope begin gen_set_contents[10] $end
$var parameter 5 !$ set_gen $end
$upscope $end
$scope begin gen_set_contents[11] $end
$var parameter 5 "$ set_gen $end
$upscope $end
$scope begin gen_set_contents[12] $end
$var parameter 5 #$ set_gen $end
$upscope $end
$scope begin gen_set_contents[13] $end
$var parameter 5 $$ set_gen $end
$upscope $end
$scope begin gen_set_contents[14] $end
$var parameter 5 %$ set_gen $end
$upscope $end
$scope begin gen_set_contents[15] $end
$var parameter 5 &$ set_gen $end
$upscope $end
$scope begin $ivl_for_loop13 $end
$var integer 32 '$ i [31:0] $end
$upscope $end
$scope begin $ivl_for_loop14 $end
$var integer 32 ($ i [31:0] $end
$upscope $end
$scope begin $ivl_for_loop15 $end
$var integer 32 )$ i [31:0] $end
$upscope $end
$scope begin $unm_blk_163 $end
$var reg 1 *$ control_taken $end
$scope begin $ivl_for_loop16 $end
$var integer 32 +$ i [31:0] $end
$upscope $end
$scope begin $unm_blk_172 $end
$var reg 1 ,$ wb_hit $end
$var reg 2 -$ wb_hit_way [1:0] $end
$scope begin $ivl_for_loop17 $end
$var integer 32 .$ w [31:0] $end
$upscope $end
$upscope $end
$scope begin $unm_blk_179 $end
$var reg 1 /$ install_done $end
$scope begin $ivl_for_loop18 $end
$var integer 32 0$ i [31:0] $end
$upscope $end
$upscope $end
$scope begin $unm_blk_182 $end
$var reg 4 1$ inst_index [3:0] $end
$var reg 20 2$ inst_tag [19:0] $end
$upscope $end
$scope begin $unm_blk_186 $end
$var reg 1 3$ mshr_dup $end
$var reg 2 4$ mshr_free_idx [1:0] $end
$var reg 1 5$ mshr_full_l2 $end
$var reg 1 6$ req_hit $end
$var reg 2 7$ req_hit_way [1:0] $end
$scope begin $ivl_for_loop19 $end
$var integer 32 8$ w [31:0] $end
$upscope $end
$scope begin $ivl_for_loop20 $end
$var integer 32 9$ i [31:0] $end
$upscope $end
$upscope $end
$scope begin $unm_blk_198 $end
$var reg 1 :$ mshr_issued_one $end
$scope begin $ivl_for_loop21 $end
$var integer 32 ;$ i [31:0] $end
$upscope $end
$upscope $end
$upscope $end
$scope begin ram_read_addr_mux $end
$upscope $end
$scope begin ram_write_ports $end
$scope begin $ivl_for_loop11 $end
$var integer 32 <$ w [31:0] $end
$upscope $end
$scope begin $unm_blk_148 $end
$var reg 1 =$ wb_hit_c $end
$var reg 2 >$ wb_hit_way_c [1:0] $end
$scope begin $ivl_for_loop12 $end
$var integer 32 ?$ w [31:0] $end
$upscope $end
$upscope $end
$upscope $end
$scope begin victim_finder $end
$var reg 1 @$ found_inv $end
$var reg 4 A$ vidx [3:0] $end
$scope begin $ivl_for_loop10 $end
$var integer 32 B$ w [31:0] $end
$upscope $end
$upscope $end
$upscope $end
$scope module u_lsq $end
$var wire 1 D clk $end
$var wire 4 C$ id_in [3:0] $end
$var wire 1 l l1_ready $end
$var wire 3 D$ op [2:0] $end
$var wire 1 J rst_n $end
$var wire 1 l tlb_ready $end
$var wire 48 E$ vaddr_in [47:0] $end
$var wire 1 z vaddr_ready $end
$var wire 1 m valid_in $end
$var wire 64 F$ wdata_in [63:0] $end
$var wire 1 x wdata_ready $end
$var wire 1 (" sq_ready $end
$var wire 1 )" lq_ready $end
$var parameter 32 G$ DATA_WIDTH $end
$var parameter 3 H$ LOAD $end
$var parameter 32 I$ LQ_ENTRIES $end
$var parameter 32 J$ LQ_PTR_WIDTH $end
$var parameter 32 K$ PA_WIDTH $end
$var parameter 3 L$ RESOLVE $end
$var parameter 32 M$ SQ_ENTRIES $end
$var parameter 32 N$ SQ_PTR_WIDTH $end
$var parameter 3 O$ STORE $end
$var parameter 32 P$ VA_WIDTH $end
$var reg 1 Q$ is_unresolved_load $end
$var reg 1 R$ is_unresolved_store $end
$var reg 3 S$ issue_op [2:0] $end
$var reg 48 T$ issue_vaddr [47:0] $end
$var reg 64 U$ issue_wdata [63:0] $end
$var reg 1 V$ lq_found $end
$var reg 3 W$ lq_found_entry [2:0] $end
$var reg 3 X$ lq_head [2:0] $end
$var reg 3 Y$ lq_tail [2:0] $end
$var reg 1 Z$ sq_found $end
$var reg 3 [$ sq_found_entry [2:0] $end
$var reg 3 \$ sq_head [2:0] $end
$var reg 3 ]$ sq_tail [2:0] $end
$var reg 1 ^$ sq_unresolved $end
$var reg 1 &" valid_out $end
$scope begin $ivl_for_loop26 $end
$var integer 32 _$ i [31:0] $end
$scope begin $unm_blk_216 $end
$var reg 3 `$ idx [2:0] $end
$upscope $end
$upscope $end
$scope begin $ivl_for_loop27 $end
$var integer 32 a$ i [31:0] $end
$scope begin $unm_blk_219 $end
$var reg 3 b$ idx [2:0] $end
$upscope $end
$upscope $end
$scope begin $ivl_for_loop28 $end
$var integer 32 c$ i [31:0] $end
$scope begin $unm_blk_223 $end
$var reg 3 d$ idx [2:0] $end
$upscope $end
$upscope $end
$scope begin $ivl_for_loop29 $end
$var integer 32 e$ i [31:0] $end
$scope begin $unm_blk_227 $end
$var reg 3 f$ idx [2:0] $end
$upscope $end
$upscope $end
$scope begin $ivl_for_loop30 $end
$var integer 32 g$ i [31:0] $end
$upscope $end
$scope begin $ivl_for_loop31 $end
$var integer 32 h$ i [31:0] $end
$upscope $end
$scope begin $ivl_for_loop32 $end
$var integer 32 i$ i [31:0] $end
$scope begin $unm_blk_238 $end
$var reg 3 j$ idx [2:0] $end
$upscope $end
$upscope $end
$scope begin $ivl_for_loop33 $end
$var integer 32 k$ i [31:0] $end
$scope begin $unm_blk_246 $end
$var reg 3 l$ idx [2:0] $end
$upscope $end
$upscope $end
$scope begin $ivl_for_loop36 $end
$var integer 32 m$ i [31:0] $end
$scope begin $unm_blk_265 $end
$var reg 3 n$ idx [2:0] $end
$upscope $end
$upscope $end
$scope begin $ivl_for_loop37 $end
$var integer 32 o$ i [31:0] $end
$scope begin $unm_blk_268 $end
$var reg 3 p$ idx [2:0] $end
$upscope $end
$upscope $end
$scope begin $unm_blk_248 $end
$var reg 1 q$ resolve_done $end
$scope begin $ivl_for_loop34 $end
$var integer 32 r$ i [31:0] $end
$scope begin $unm_blk_249 $end
$var reg 3 s$ idx [2:0] $end
$upscope $end
$upscope $end
$upscope $end
$scope begin $unm_blk_252 $end
$var reg 1 t$ resolve_done $end
$scope begin $ivl_for_loop35 $end
$var integer 32 u$ i [31:0] $end
$scope begin $unm_blk_253 $end
$var reg 3 v$ idx [2:0] $end
$upscope $end
$upscope $end
$upscope $end
$upscope $end
$scope module u_tlb $end
$var wire 1 D clk $end
$var wire 1 i is_tlb_fill $end
$var wire 30 w$ paddr [29:0] $end
$var wire 1 J rst_n $end
$var wire 1 r start $end
$var wire 48 x$ vaddr [47:0] $end
$var reg 1 y$ free_found $end
$var reg 4 z$ free_index [3:0] $end
$var reg 1 {$ hit_found $end
$var reg 4 |$ hit_index [3:0] $end
$var reg 1 $" ready $end
$var reg 30 }$ result_paddr [29:0] $end
$var reg 1 !" valid $end
$scope begin $ivl_for_loop22 $end
$var integer 32 ~$ i [31:0] $end
$upscope $end
$scope begin $ivl_for_loop23 $end
$var integer 32 !% i [31:0] $end
$upscope $end
$scope begin $ivl_for_loop24 $end
$var integer 32 "% j [31:0] $end
$upscope $end
$scope begin $ivl_for_loop25 $end
$var integer 32 #% j [31:0] $end
$upscope $end
$upscope $end
$upscope $end
$scope begin backing_memory $end
$var reg 512 $% read_line [511:0] $end
$var integer 32 %% free_idx [31:0] $end
$var integer 32 &% i [31:0] $end
$upscope $end
$scope begin drive_trace $end
$var reg 121 '% packet [120:0] $end
$upscope $end
$scope task actual_word_from_hierarchy $end
$upscope $end
$scope task apply_reset $end
$upscope $end
$scope task clear_all_state $end
$upscope $end
$scope task compare_expected_state $end
$upscope $end
$scope task decode_trace_word $end
$upscope $end
$scope task expected_store_word $end
$scope begin expected_insert $end
$upscope $end
$upscope $end
$scope task idle_inputs $end
$upscope $end
$scope task line_get_slot $end
$scope begin find_slot $end
$upscope $end
$upscope $end
$scope task line_read $end
$upscope $end
$scope task line_write $end
$upscope $end
$scope task send_trace_packet $end
$upscope $end
$scope task shadow_commit_ready $end
$upscope $end
$scope task shadow_find_resolve_target $end
$upscope $end
$scope task shadow_process_trace $end
$upscope $end
$scope task shadow_queue_push $end
$upscope $end
$scope task tlb_map_update $end
$scope begin tlb_insert $end
$upscope $end
$upscope $end
$scope task tlb_translate $end
$scope begin tlb_lookup $end
$upscope $end
$upscope $end
$scope task wait_all_idle $end
$upscope $end
$upscope $end
$enddefinitions $end
$comment Show the parameter values. $end
$dumpall
b110000 P$
b1 O$
b11 N$
b1000 M$
b10 L$
b11110 K$
b11 J$
b1000 I$
b0 H$
b1000000 G$
b1111 &$
b1110 %$
b1101 $$
b1100 #$
b1011 "$
b1010 !$
b1001 ~#
b1000 }#
b111 |#
b110 {#
b101 z#
b100 y#
b11 x#
b10 w#
b1 v#
b0 u#
b10 ]#
b100 \#
b10 [#
b10100 Z#
b11110 Y#
b110 X#
b100 W#
b10 V#
b1 U#
b11 T#
b0 S#
b1000000000 R#
b100 Q#
b10000 P#
b1000000000000 O#
b100 N#
b1000000 M#
b10 L#
b1 K#
b0 J#
b11 I#
b1000000 H#
b11 v"
b1000 u"
b1 t"
b10 s"
b110000 r"
b10110 q"
b11110 p"
b110 o"
b10 n"
b1 m"
b10 l"
b0 k"
b10 j"
b100 i"
b1000000000 h"
b10 g"
b1000000 f"
b1000000 e"
b110000 T"
0S"
b1111001 R"
b10000 Q"
b11110 P"
b100 O"
b1 N"
b10 M"
b0 L"
b10000 K"
b100 J"
b100 I"
b1000000000000 H"
b10 G"
b10 F"
b1000000000 E"
b1000000 D"
b1000000 C"
b11 C
b110000 B
b1111001 A
b100000000000 @
b100 ?
b11 >
b10 =
b1 <
b0 ;
b1000000 :
b100000 9
b11 8
b111110100 7
b11110 6
b100 5
b1 4
b10 3
b0 2
b110 1
b1100 0
b10 /
b1 .
b0 -
b10000000000000 ,
b1000000000 +
b0 *
b0 )
b1000000000000000 (
b1000000 '
b1000000 &
$end
#0
$dumpvars
bx '%
b100000 &%
bx %%
bx $%
b0 #%
b0 "%
b10000 !%
b10000 ~$
bx }$
b0 |$
0{$
b0 z$
1y$
b0 x$
b0 w$
bx v$
b0 u$
xt$
bx s$
b0 r$
xq$
bx p$
b0 o$
bx n$
b0 m$
bx l$
b0 k$
bx j$
b0 i$
b1000 h$
b1000 g$
b111 f$
b1000 e$
b111 d$
b1000 c$
b111 b$
b1000 a$
b111 `$
b1000 _$
0^$
b0 ]$
b0 \$
b0 [$
0Z$
b0 Y$
b0 X$
b0 W$
0V$
bx U$
bx T$
bx S$
0R$
0Q$
b0 F$
b0 E$
b0 D$
b0 C$
b100 B$
b0 A$
1@$
b0 ?$
bx >$
x=$
b100 <$
b0 ;$
x:$
b0 9$
b0 8$
bx 7$
x6$
x5$
bx 4$
x3$
bx 2$
bx 1$
b0 0$
x/$
b0 .$
bx -$
x,$
b0 +$
x*$
b100 )$
b10000 ($
b100 '$
b0 t#
b0 s#
b0 r#
b0 q#
0p#
0o#
b0 n#
b0 m#
b0 l#
b0 k#
bx j#
bx i#
0h#
b0 g#
b0 f#
b0 e#
b0 d#
0c#
b0 b#
b0 a#
b0 `#
b0 _#
b0 ^#
b0 G#
b0 F#
1E#
0D#
b0 C#
b0 B#
b0 A#
b0 @#
b0 ?#
b0 >#
b0 =#
bx <#
b0 ;#
b0 :#
bx 9#
b10 8#
b10 7#
b100 6#
b10 5#
b10 4#
b10 3#
02#
bx 1#
bx 0#
x/#
x.#
0-#
b0 ,#
bx +#
x*#
bx )#
b0 (#
x'#
0&#
0%#
x$#
x##
b0 "#
b0 !#
bx ~"
0}"
0|"
x{"
b0 z"
b0 y"
0x"
b0 w"
bx000000 d"
bx c"
bx b"
bx a"
bx `"
1_"
0^"
b0 ]"
b0 \"
b0 ["
b0 Z"
b0 Y"
b0 X"
0W"
b0 V"
b0 U"
1B"
0A"
0@"
0?"
1>"
0="
0<"
b0 ;"
0:"
b0 9"
b0 8"
07"
bx 6"
bx 5"
04"
03"
b0 2"
01"
10"
0/"
b0 ."
b0 -"
b0 ,"
0+"
bx *"
1)"
1("
bx '"
0&"
bx %"
1$"
bx #"
b0 ""
0!"
b0 ~
b0 }
b0 |
b0 {
0z
b0 y
0x
zw
0v
bz u
b0 t
bz s
0r
b0 q
b0 p
b0 o
b0 n
0m
1l
0k
0j
0i
1h
b0 g
0f
ze
zd
bz c
0b
b0 a
b0 `
b0 _
b0 ^
b0 ]
b1100100 \
b10000000000000000000000000000011 [
b111101000010010000 Z
b0 Y
b0 X
b0 W
b0 V
b0 U
b0 T
b0 S
b0 R
b0 Q
b0 P
b0 O
b0 N
0M
b0 L
0K
0J
0I
0H
b0 G
b0 F
1E
0D
b0 %
0$
0#
b0 "
1!
$end
#5000
b100000 &%
b100 )$
b10000 ($
b10 8#
b10 7#
b100 6#
b10000 !%
b1000 h$
b1000 g$
1D
#10000
0D
#15000
b100000 &%
b100 )$
b10000 ($
b10 8#
b10 7#
b100 6#
b10000 !%
b1000 h$
b1000 g$
1D
#20000
0D
#25000
b100000 &%
b100 )$
b10000 ($
b10 8#
b10 7#
b100 6#
b10000 !%
b1000 h$
b1000 g$
1D
#30000
1J
0D
#35000
b1 O
b100000 &%
b100 0$
0/$
0*$
b10 <#
b10 9#
0'#
b0 0#
b0 1#
0/#
0.#
1D
#40000
b1 U
b10000000000000000000000000000011000000011111111111111100010000101000011111000000000000 '%
0D
#45000
b10 O
b100000 &%
b100 0$
b10 <#
b10 9#
1D
#50000
b10000 ~$
1y$
0h
1r
b11111111111111100010000101000011111000000000000 ""
b11111111111111100010000101000011111000000000000 x$
0m
1i
1v
0B"
1?"
b100 }
b100 D$
b11111111111111100010000101000011111000000000000 {
b11111111111111100010000101000011111000000000000 E$
1z
b100000000000000000000000000000 y
b100000000000000000000000000000 F$
b100000000000000000000000000000 |
b100000000000000000000000000000 w$
1M
b10000000000000000000000000000011000000011111111111111100010000101000011111000000000000 ^
b10000000000000000000000000000011000000011111111111111100010000101000011111000000000000 L
b10000000000000000000000000000011000000011111111111111100010000101000011111000000000000 t
0D
#55000
0r
b0 ""
b0 x$
0i
0v
b1 z$
0{$
b10000 ~$
1y$
0!
b11 O
0$"
b100000 &%
b100 0$
b10 <#
b10 9#
b10000 "%
1D
#60000
1!
1h
1B"
0?"
b0 }
b0 D$
b0 {
b0 E$
0z
b0 y
b0 F$
b0 |
b0 w$
b1 Q
b1 W
b1 Y
b10 U
b0 '%
b1 V
b0 ^
b0 L
b0 t
0M
0D
#65000
b100 O
1$"
b100000 &%
b100 0$
b10 <#
b10 9#
1D
#70000
1m
1v
1M
0D
#75000
1m
1v
1!
b111 f$
b1000 e$
b111 `$
b1000 _$
b1 Y$
b101 O
1)"
b100000 &%
b100 0$
b10 <#
b10 9#
b1000 i$
b111 j$
1D
#80000
0m
0v
b10 Q
b10 W
b10 Y
b11 U
b1000000000000000000000000000000000000000000000000000000000000000000011000000000000000000000000000000000000000000000000000 '%
b10 V
0M
0D
#85000
b110 O
b100000 &%
b100 0$
b10 <#
b10 9#
1D
